/home/asus/Bureau/Achat/src/main/java/tn/esprit/rh/achat/repositories/FournisseurRepository.java
/home/asus/Bureau/Achat/src/main/java/tn/esprit/rh/achat/services/OperateurServiceImpl.java
/home/asus/Bureau/Achat/src/main/java/tn/esprit/rh/achat/services/ICategorieProduitService.java
/home/asus/Bureau/Achat/src/main/java/tn/esprit/rh/achat/entities/Produit.java
/home/asus/Bureau/Achat/src/main/java/tn/esprit/rh/achat/entities/CategorieFournisseur.java
/home/asus/Bureau/Achat/src/main/java/tn/esprit/rh/achat/repositories/DetailFournisseurRepository.java
/home/asus/Bureau/Achat/src/main/java/tn/esprit/rh/achat/services/ProduitServiceImpl.java
/home/asus/Bureau/Achat/src/main/java/tn/esprit/rh/achat/services/IFournisseurService.java
/home/asus/Bureau/Achat/src/main/java/tn/esprit/rh/achat/services/ReglementServiceImpl.java
/home/asus/Bureau/Achat/src/main/java/tn/esprit/rh/achat/services/FactureServiceImpl.java
/home/asus/Bureau/Achat/src/main/java/tn/esprit/rh/achat/services/ISecteurActiviteService.java
/home/asus/Bureau/Achat/src/main/java/tn/esprit/rh/achat/repositories/OperateurRepository.java
/home/asus/Bureau/Achat/src/main/java/tn/esprit/rh/achat/services/FournisseurServiceImpl.java
/home/asus/Bureau/Achat/src/main/java/tn/esprit/rh/achat/entities/Fournisseur.java
/home/asus/Bureau/Achat/src/main/java/tn/esprit/rh/achat/services/StockServiceImpl.java
/home/asus/Bureau/Achat/src/main/java/tn/esprit/rh/achat/repositories/ProduitRepository.java
/home/asus/Bureau/Achat/src/main/java/tn/esprit/rh/achat/entities/Operateur.java
/home/asus/Bureau/Achat/src/main/java/tn/esprit/rh/achat/services/IOperateurService.java
/home/asus/Bureau/Achat/src/main/java/tn/esprit/rh/achat/controllers/FactureRestController.java
/home/asus/Bureau/Achat/src/main/java/tn/esprit/rh/achat/entities/CategorieProduit.java
/home/asus/Bureau/Achat/src/main/java/tn/esprit/rh/achat/controllers/OperateurController.java
/home/asus/Bureau/Achat/src/main/java/tn/esprit/rh/achat/util/SpringFoxSwaggerConfig.java
/home/asus/Bureau/Achat/src/main/java/tn/esprit/rh/achat/repositories/DetailFactureRepository.java
/home/asus/Bureau/Achat/src/main/java/tn/esprit/rh/achat/controllers/FournisseurRestController.java
/home/asus/Bureau/Achat/src/main/java/tn/esprit/rh/achat/controllers/SecteurActiviteController.java
/home/asus/Bureau/Achat/src/main/java/tn/esprit/rh/achat/controllers/ProduitRestController.java
/home/asus/Bureau/Achat/src/main/java/tn/esprit/rh/achat/services/IStockService.java
/home/asus/Bureau/Achat/src/main/java/tn/esprit/rh/achat/services/SecteurActiviteServiceImpl.java
/home/asus/Bureau/Achat/src/main/java/tn/esprit/rh/achat/controllers/StockRestController.java
/home/asus/Bureau/Achat/src/main/java/tn/esprit/rh/achat/repositories/StockRepository.java
/home/asus/Bureau/Achat/src/main/java/tn/esprit/rh/achat/entities/Facture.java
/home/asus/Bureau/Achat/src/main/java/tn/esprit/rh/achat/controllers/ReglementRestController.java
/home/asus/Bureau/Achat/src/main/java/tn/esprit/rh/achat/repositories/CategorieProduitRepository.java
/home/asus/Bureau/Achat/src/main/java/tn/esprit/rh/achat/services/CategorieProduitServiceImpl.java
/home/asus/Bureau/Achat/src/main/java/tn/esprit/rh/achat/repositories/SecteurActiviteRepository.java
/home/asus/Bureau/Achat/src/main/java/tn/esprit/rh/achat/entities/SecteurActivite.java
/home/asus/Bureau/Achat/src/main/java/tn/esprit/rh/achat/controllers/CategorieProduitController.java
/home/asus/Bureau/Achat/src/main/java/tn/esprit/rh/achat/entities/DetailFournisseur.java
/home/asus/Bureau/Achat/src/main/java/tn/esprit/rh/achat/AchatApplication.java
/home/asus/Bureau/Achat/src/main/java/tn/esprit/rh/achat/entities/DetailFacture.java
/home/asus/Bureau/Achat/src/main/java/tn/esprit/rh/achat/services/IReglementService.java
/home/asus/Bureau/Achat/src/main/java/tn/esprit/rh/achat/services/IFactureService.java
/home/asus/Bureau/Achat/src/main/java/tn/esprit/rh/achat/repositories/ReglementRepository.java
/home/asus/Bureau/Achat/src/main/java/tn/esprit/rh/achat/repositories/FactureRepository.java
/home/asus/Bureau/Achat/src/main/java/tn/esprit/rh/achat/entities/Reglement.java
/home/asus/Bureau/Achat/src/main/java/tn/esprit/rh/achat/entities/Stock.java
/home/asus/Bureau/Achat/src/main/java/tn/esprit/rh/achat/services/IProduitService.java
